<svg width="20" height="20" viewBox="0 0 20 20" fill="none" xmlns="http://www.w3.org/2000/svg">
<ellipse cx="8" cy="15.5" rx="7" ry="3.5" stroke="#28303F" stroke-width="1.5" stroke-linejoin="round"/>
<circle cx="8" cy="5" r="4" stroke="#28303F" stroke-width="1.5" stroke-linejoin="round"/>
<path d="M19 9H15" stroke="#28303F" stroke-width="1.5" stroke-linecap="round"/>
<path d="M17 7L17 11" stroke="#28303F" stroke-width="1.5" stroke-linecap="round"/>
</svg>
